\relax 
\@writefile{toc}{\contentsline {section}{\numberline {1}Introduction}{1}}
\newlabel{s1}{{1}{1}}
\newlabel{polsphere}{{1}{1}}
\newlabel{GBe1}{{2}{2}}
\@writefile{toc}{\contentsline {section}{\numberline {2}See GB Figure\nobreakspace  {}1 and explanation. (Similarly all other Figs.) }{2}}
\newlabel{s2}{{2}{2}}
\newlabel{GBe2}{{4}{2}}
\@writefile{toc}{\contentsline {section}{\numberline {3}Oblate spheroidal coordinates}{2}}
\newlabel{s4}{{3}{2}}
\newlabel{e4}{{5}{2}}
\newlabel{aspect}{{6}{3}}
\newlabel{Pdefinition}{{8}{3}}
\newlabel{Ldefine}{{10}{3}}
\newlabel{e5}{{12}{3}}
\@writefile{toc}{\contentsline {section}{\numberline {4}Laplace's equation}{4}}
\newlabel{s5}{{4}{4}}
\newlabel{e7}{{13}{4}}
\newlabel{e8}{{14}{4}}
\newlabel{e9}{{15}{4}}
\newlabel{xiphiapplied}{{16}{4}}
\newlabel{xiphiinduced}{{17}{4}}
\newlabel{e7}{{18}{4}}
\newlabel{e8}{{19}{4}}
\@writefile{toc}{\contentsline {section}{\numberline {5}The radial functions $M_{\text  {\lowercase {$l$}}}^{\text  {\lowercase {$m$}}}$}{5}}
\newlabel{s6}{{5}{5}}
\newlabel{e11}{{20}{5}}
\newlabel{eM00}{{21}{5}}
\newlabel{eM20}{{22}{5}}
\newlabel{eM21}{{23}{5}}
\newlabel{eM22}{{24}{5}}
\newlabel{eM00}{{25}{6}}
\newlabel{eM20}{{26}{6}}
\newlabel{eM21}{{27}{6}}
\newlabel{eM22}{{28}{6}}
\@writefile{toc}{\contentsline {section}{\numberline {6}The solution of the potential problem}{6}}
\newlabel{s7}{{6}{6}}
\newlabel{e14}{{29}{6}}
\newlabel{phimonopole}{{30}{6}}
\newlabel{C22}{{31}{6}}
\newlabel{wM00}{{32}{6}}
\newlabel{wM20}{{33}{6}}
\newlabel{wM21}{{34}{6}}
\newlabel{wM22}{{35}{6}}
\newlabel{phiapplied}{{36}{6}}
\newlabel{phiinduced}{{37}{7}}
\@writefile{toc}{\contentsline {section}{\numberline {7}The disc's surface charge density}{7}}
\newlabel{s8}{{7}{7}}
\newlabel{sigma}{{38}{7}}
\newlabel{hu}{{39}{7}}
\newlabel{hxi}{{40}{7}}
\newlabel{hphi}{{41}{7}}
\newlabel{GBeqZ}{{42}{7}}
\@writefile{toc}{\contentsline {section}{\numberline {8}The torque acting on the disc}{8}}
\newlabel{s9}{{8}{8}}
\@writefile{toc}{\contentsline {section}{\numberline {9}The potential energy}{8}}
\newlabel{s10}{{9}{8}}
\newlabel{hh/h}{{43}{8}}
\newlabel{U0}{{44}{8}}
\newlabel{e19}{{49}{9}}
\newlabel{D20}{{54}{10}}
\newlabel{D21}{{55}{10}}
\newlabel{D22}{{56}{10}}
\newlabel{PE0}{{61}{10}}
\newlabel{D20expansion}{{62}{10}}
\newlabel{PEpi2}{{67}{11}}
\@writefile{toc}{\contentsline {section}{\numberline {10}Appendix A: Legendre functions}{13}}
\@writefile{toc}{\contentsline {subsection}{\numberline {10.1}Copied from Geoff Brooker's note.}{13}}
\newlabel{e12}{{75}{13}}
\newlabel{e13}{{76}{13}}
\newlabel{e13}{{77}{13}}
\newlabel{spheroidal}{{78}{14}}
\newlabel{aspectratio}{{79}{14}}
\newlabel{M0}{{89}{15}}
\newlabel{limit1}{{90}{15}}
\newlabel{limit2}{{91}{15}}
\newlabel{qpolepotential}{{95}{15}}
\newlabel{b0}{{97}{16}}
\newlabel{b2}{{98}{16}}
\newlabel{b4}{{99}{16}}
\newlabel{D20}{{100}{16}}
\newlabel{D21}{{101}{16}}
\newlabel{D22}{{102}{16}}
\newlabel{Gammapara}{{109}{16}}
\newlabel{Gammaperp}{{111}{16}}
\@writefile{lot}{\contentsline {table}{\numberline {1}{\ignorespaces default}}{17}}
\newlabel{default}{{1}{17}}
\newlabel{GammaiD}{{116}{18}}
\@writefile{lof}{\contentsline {figure}{\numberline {1}{\ignorespaces  (From Geoff) Field lines for the quadrupole potential $\varphi _{\text  {applied}}=A(x^2+y^2-2z^2)$, shown in the $xz$ plane. The slanting line is the equipotential $\varphi =0$ and, being an equipotential, is perpendicular to all field lines. A conducting rod, lying along this line, has no induced charge movements. The line has $z=x/\sqrt  {2}$; equivalently $\varTheta =\varTheta _1$ where $\mathrm  {P}_2(\qopname  \relax o{cos}\varTheta _1)=\frac  {1}{2}(3\qopname  \relax o{cos}^2\varTheta _1-1)=0$.}}{18}}
\newlabel{QpoleFieldLines}{{1}{18}}
\newlabel{qpolepotential}{{119}{18}}
\newlabel{Uo}{{120}{19}}
\newlabel{hiQ}{{122}{19}}
\@writefile{lof}{\contentsline {figure}{\numberline {2}{\ignorespaces  The functions $h_{\mathrm  {iD}}$ and $h_{\mathrm  {iQ}}$ for the induced dipole moment and induced quadrupole moments, that in each case give the ratio of the torque on a spheroid to that of an infinitely flat disc of the same radius. The plot shows that considering the system as a flat disc gives less than 10\% error over the range from $u=0$ (which is the limit of zero thickness where the aspect ratio is $\lambda = \infty $) up to $u=0.6$ which corresponds to $\lambda = 1.9$ in eqn \textup  {\hbox {\mathsurround \z@ \normalfont  (\ignorespaces \G@refundefinedtrue \text  {\normalfont  \bfseries  ??}\GenericWarning  {               }{LaTeX Warning: Reference `aspectratio' on page 19 undefined}\unskip \@@italiccorr )}}. This range covers all the objects considered in this paper.}}{19}}
\newlabel{hiDhiQpt6}{{2}{19}}
\@writefile{lof}{\contentsline {figure}{\numberline {3}{\ignorespaces  A plot of the functions $h_{\mathrm  {iD}}$ and $h_{\mathrm  {iQ}}$ over a larger range of $u$ than in the previous Figure. After the maximum at small $u$ both functions fall to zero as spheroid becomes more spherical (the aspect ratio $\lambda \rightarrow 1$, from eqn \textup  {\hbox {\mathsurround \z@ \normalfont  (\ignorespaces \G@refundefinedtrue \text  {\normalfont  \bfseries  ??}\GenericWarning  {               }{LaTeX Warning: Reference `aspectratio' on page 19 undefined}\unskip \@@italiccorr )}} ). There must be reason why the shape of the curves are so similar but since this is only a 10\% effect for us, I'm not inclined to investigate further; I have derived all the equations necessary to produce plots of the surface charge density for any alignment angle and $u$.}}{19}}
\newlabel{hiDhiQupto6}{{3}{19}}
\newlabel{spheroidalcoords}{{123}{19}}
\newlabel{spheroid}{{124}{20}}
\newlabel{aspectratio}{{125}{20}}
\newlabel{Laplace}{{126}{20}}
\newlabel{perptoparallel}{{128}{20}}
\newlabel{M0}{{130}{20}}
\newlabel{limit1}{{131}{20}}
\newlabel{limit2}{{132}{20}}
\newlabel{UiQ}{{134}{21}}
\newlabel{b0}{{135}{21}}
\newlabel{b2}{{136}{21}}
\newlabel{b4}{{137}{21}}
\newlabel{D20}{{138}{21}}
\newlabel{D21}{{139}{21}}
\newlabel{D22}{{140}{21}}
\@writefile{lot}{\contentsline {table}{\numberline {2}{\ignorespaces The correction factors for some values of the $\lambda $ and $u$. }}{22}}
\newlabel{TableFactors}{{2}{22}}
\@writefile{toc}{\contentsline {subsection}{\numberline {10.2}CJF notes.}{23}}
\newlabel{AM00}{{145}{23}}
\newlabel{eM20}{{146}{23}}
\newlabel{AM21}{{147}{23}}
\newlabel{AM22}{{148}{23}}
\newlabel{AM23}{{149}{23}}
\newlabel{foverg}{{150}{23}}
\newlabel{D20}{{151}{24}}
\newlabel{D21}{{152}{24}}
\newlabel{D22}{{153}{24}}
\@writefile{toc}{\contentsline {subsection}{\numberline {10.3}Copied from Geoff Brooker's note.}{25}}
